{"phrases":[
    {
    	"phrase": "BECAUSE...SHE IS HOT, RICH AND HAS A QUEUE OF SUITORS", 
    	"image": "hot_rich_queue_of_suitors.jpg",
    	"language": "english",
    	"submitted": "1469797691"
    },
    {
        "phrase": "BECAUSE...IF SHE DID I WOULDN'T BE WRITING THIS", 
        "image": "i_wouldnt_be_writing_this.jpg",
        "language": "english",
        "submitted": "1469797691"
    },    {
        "phrase": "BECAUSE...SHE WAS BORN IN 1991", 
        "image": "BORN_IN_1991.png",
        "language": "english",
        "submitted": "1469797691"
    },    {
        "phrase": "BECAUSE...SHE HAS ENOUGH MONEY TO START A WAR", 
        "image": "enough_money_to_start_a_war.jpg",
        "language": "english",
        "submitted": "1469797691"
    },    {
        "phrase": "BECAUSE...I INSTALLED LINUX ON HER LAPTOP", 
        "image": "linux.png",
        "language": "english",
        "submitted": "1469797691"
    },    {
        "phrase": "BECAUSE I WEAR WHITE SHOES", 
        "image": "white_shoes.png",
        "language": "english",
        "submitted": "1469797691"
    },    {
        "phrase": "BECAUSE...SHE KISSED SOMEONE ELSE ON THE LIPS IN FRONT OF ME", 
        "image": "kiss_on_lips.jpg",
        "language": "english",
        "submitted": "1469797691"
    },    {
        "phrase": "BECAUSE...AFTER HER I (ALMOST) JOINED THE FRENCH FOREIGN LEGION", 
        "image": "french_foreign_legion.jpg",
        "language": "english",
        "submitted": "1469797691"
    },    {
        "phrase": "BECAUSE...AFTER HER I (ALMOST) WENT INTO WELFARE", 
        "image": "losing_money.jpg",
        "language": "english",
        "submitted": "1469797691"
    }
]}

